{
"twitter.com":{"type":"domain","domain":"twitter.com","pv_count":"1207","session_count":"1081","icon":"/img/favicon-twitter.png"},
"techmeme.com":{"type":"domain","domain":"techmeme.com","pv_count":"656","session_count":"599","icon":"/img/favicon-techmeme.gif"},
"techcrunch.com":{"type":"domain","domain":"techcrunch.com","pv_count":"588","session_count":"489"},
"google.com":{"type":"domain","domain":"google.com","pv_count":"454","session_count":"393","icon":"/img/favicon-google.png"},
"sphinn.com":{"type":"domain","domain":"sphinn.com","pv_count":"210","session_count":"178","icon":"/img/favicon-sphinn.png"},
"hootsuite.com":{"type":"domain","domain":"hootsuite.com","pv_count":"140","session_count":"121","icon":"http://s4.static.hootsuite.com/2-6-10/images/hs_128x128.png"},
"facebook.com":{"type":"domain","domain":"facebook.com","pv_count":"114","session_count":"102","icon":"http://blog.opentable.com/wp-content/uploads/2009/05/facebook-logo-150x150.jpg"},
"tumblr.com":{"type":"domain","domain":"tumblr.com","pv_count":"135","session_count":"101","icon":"http://assets.tumblr.com/images/apple_touch_icon.png"},
"t3n.de":{"type":"domain","domain":"t3n.de","pv_count":"111","session_count":"95"},
"reuters.com":{"type":"domain","domain":"reuters.com","pv_count":"103","session_count":"92"},
"ycombinator.com":{"type":"domain","domain":"ycombinator.com","pv_count":"89","session_count":"84","icon":"/img/favicon-ycombinator.png"},
"summify.com":{"type":"domain","domain":"summify.com","pv_count":"107","session_count":"83"},
"mediagazer.com":{"type":"domain","domain":"mediagazer.com","pv_count":"71","session_count":"59","icon":"http://mediagazer.com/m/config/media/iicon.gif"},
"bothsidesofthetable.com":{"type":"domain","domain":"bothsidesofthetable.com","pv_count":"56","session_count":"48","icon":"/img/favicon-bothsides.png"},
"econsultancy.com":{"type":"domain","domain":"econsultancy.com","pv_count":"52","session_count":"44","icon":"http://econsultancy.com/images/favicon.png"},
"linkedin.com":{"type":"domain","domain":"linkedin.com","pv_count":"40","session_count":"39","icon":"http://www.linkedin.com/img/icon/apple-touch-icon.png"},
"businessinsider.com":{"type":"domain","domain":"businessinsider.com","pv_count":"39","session_count":"37","icon":"http://static8.businessinsider.com/assets/images/apple-touch-icon.png"},
"delicious.com":{"type":"domain","domain":"delicious.com","pv_count":"47","session_count":"34"},
"ht.ly":{"type":"domain","domain":"ht.ly","pv_count":"29","session_count":"27"},
"totally.awe.sm":{"type":"domain","domain":"totally.awe.sm","pv_count":"88","session_count":"26"},
"discovermagazine.com":{"type":"domain","domain":"discovermagazine.com","pv_count":"30","session_count":"26"},
"visibli.com":{"type":"domain","domain":"visibli.com","pv_count":"26","session_count":"25"},
"yahoo.com":{"type":"domain","domain":"yahoo.com","pv_count":"47","session_count":"40"},
"iconfactory.com":{"type":"domain","domain":"iconfactory.com","pv_count":"23","session_count":"22"},
"allthingsd.com":{"type":"domain","domain":"allthingsd.com","pv_count":"18","session_count":"17"},
"nextlevelofnews.com":{"type":"domain","domain":"nextlevelofnews.com","pv_count":"18","session_count":"17"},
"webpronews.com":{"type":"domain","domain":"webpronews.com","pv_count":"21","session_count":"17"},
"nextmedia-source.com":{"type":"domain","domain":"nextmedia-source.com","pv_count":"21","session_count":"16"},
"netnewscheck.com":{"type":"domain","domain":"netnewscheck.com","pv_count":"21","session_count":"16"},
"live.com":{"type":"domain","domain":"live.com","pv_count":"15","session_count":"14"},
"tweetedtimes.com":{"type":"domain","domain":"tweetedtimes.com","pv_count":"15","session_count":"14"},
"reddit.com":{"type":"domain","domain":"reddit.com","pv_count":"13","session_count":"13"},
"wordpress.com":{"type":"domain","domain":"wordpress.com","pv_count":"13","session_count":"13"},
"paper.li":{"type":"domain","domain":"paper.li","pv_count":"13","session_count":"12"},
"netvibes.com":{"type":"domain","domain":"netvibes.com","pv_count":"12","session_count":"12"},
"emediavitals.com":{"type":"domain","domain":"emediavitals.com","pv_count":"11","session_count":"11"},
"instapaper.com":{"type":"domain","domain":"instapaper.com","pv_count":"13","session_count":"10"},
"twittergadget.com":{"type":"domain","domain":"twittergadget.com","pv_count":"9","session_count":"9"},
"jeffbullas.com":{"type":"domain","domain":"jeffbullas.com","pv_count":"11","session_count":"9"},
"ning.com":{"type":"domain","domain":"ning.com","pv_count":"8","session_count":"8"},
"www.ibusiness.de":{"type":"domain","domain":"www.ibusiness.de","pv_count":"11","session_count":"8"},
"ragan.com":{"type":"domain","domain":"ragan.com","pv_count":"9","session_count":"7"},
"cnet.com":{"type":"domain","domain":"cnet.com","pv_count":"7","session_count":"7"},
"www.federatedmedia.net":{"type":"domain","domain":"www.federatedmedia.net","pv_count":"6","session_count":"6"},
"www.deutsche-startups.de":{"type":"domain","domain":"www.deutsche-startups.de","pv_count":"7","session_count":"6"},
"ticbeat.com":{"type":"domain","domain":"ticbeat.com","pv_count":"7","session_count":"6"},
"percolate.com":{"type":"domain","domain":"percolate.com","pv_count":"6","session_count":"6"},
"tcfast.com":{"type":"domain","domain":"tcfast.com","pv_count":"7","session_count":"6"},
"scienceblogs.com":{"type":"domain","domain":"scienceblogs.com","pv_count":"7","session_count":"6"},
"feedly.com":{"type":"domain","domain":"feedly.com","pv_count":"5","session_count":"5"},"pinboard.in":{"type":"domain","domain":"pinboard.in","pv_count":"5","session_count":"5"},"www.google.ca":{"type":"domain","domain":"www.google.ca","pv_count":"5","session_count":"5"},"t.co":{"type":"domain","domain":"t.co","pv_count":"9","session_count":"5"},"0.0.1":{"type":"domain","domain":"0.0.1","pv_count":"5","session_count":"5"},"stoweboyd.com":{"type":"domain","domain":"stoweboyd.com","pv_count":"5","session_count":"5"},"mediabistro.com":{"type":"domain","domain":"mediabistro.com","pv_count":"14","session_count":"4"},"www.reseaux-professionnels.fr":{"type":"domain","domain":"www.reseaux-professionnels.fr","pv_count":"4","session_count":"4"},"searchengineland.com":{"type":"domain","domain":"searchengineland.com","pv_count":"5","session_count":"3"},"baekdal.com":{"type":"domain","domain":"baekdal.com","pv_count":"3","session_count":"3"},"pulsene.ws":{"type":"domain","domain":"pulsene.ws","pv_count":"3","session_count":"3"},"tweetdeck.com":{"type":"domain","domain":"tweetdeck.com","pv_count":"3","session_count":"3"},"google.com.au":{"type":"domain","domain":"google.com.au","pv_count":"3","session_count":"3"},"cotweet.com":{"type":"domain","domain":"cotweet.com","pv_count":"4","session_count":"3"},"topsy.com":{"type":"domain","domain":"topsy.com","pv_count":"3","session_count":"3"},"www.google.de":{"type":"domain","domain":"www.google.de","pv_count":"4","session_count":"3"},"createordie.de":{"type":"domain","domain":"createordie.de","pv_count":"3","session_count":"2"},"stumbleupon.com":{"type":"domain","domain":"stumbleupon.com","pv_count":"2","session_count":"2"},"sol:5108":{"type":"domain","domain":"sol:5108","pv_count":"2","session_count":"2"},"viadeo.com":{"type":"domain","domain":"viadeo.com","pv_count":"2","session_count":"2"},"www.google.nl":{"type":"domain","domain":"www.google.nl","pv_count":"2","session_count":"2"},"jimmyr.com":{"type":"domain","domain":"jimmyr.com","pv_count":"2","session_count":"2"},"blogspot.com":{"type":"domain","domain":"blogspot.com","pv_count":"2","session_count":"2"},"samsclass.info":{"type":"domain","domain":"samsclass.info","pv_count":"2","session_count":"2"},"russellbeattie.com":{"type":"domain","domain":"russellbeattie.com","pv_count":"2","session_count":"2"},"webdoc.com":{"type":"domain","domain":"webdoc.com","pv_count":"2","session_count":"2"},"adobe.com":{"type":"domain","domain":"adobe.com","pv_count":"9","session_count":"2"},"clasesdeperiodismo.com":{"type":"domain","domain":"clasesdeperiodismo.com","pv_count":"2","session_count":"2"},"midiaetc.com":{"type":"domain","domain":"midiaetc.com","pv_count":"2","session_count":"2"},"digg.com":{"type":"domain","domain":"digg.com","pv_count":"3","session_count":"2"},"mysyndicaat.com":{"type":"domain","domain":"mysyndicaat.com","pv_count":"1","session_count":"1"},"the390.com:2095":{"type":"domain","domain":"the390.com:2095","pv_count":"6","session_count":"1"},"pearltrees.com":{"type":"domain","domain":"pearltrees.com","pv_count":"2","session_count":"1"},"tweetsmarter.com":{"type":"domain","domain":"tweetsmarter.com","pv_count":"1","session_count":"1"},"textchannels.com":{"type":"domain","domain":"textchannels.com","pv_count":"1","session_count":"1"},"valleynewslive.com":{"type":"domain","domain":"valleynewslive.com","pv_count":"1","session_count":"1"},"tweetreach.com":{"type":"domain","domain":"tweetreach.com","pv_count":"1","session_count":"1"},"stocktwits.com":{"type":"domain","domain":"stocktwits.com","pv_count":"1","session_count":"1"},"romeda.org":{"type":"domain","domain":"romeda.org","pv_count":"1","session_count":"1"},"appspot.com":{"type":"domain","domain":"appspot.com","pv_count":"1","session_count":"1"},"pixiq.com":{"type":"domain","domain":"pixiq.com","pv_count":"1","session_count":"1"},"chicagotribune.com":{"type":"domain","domain":"chicagotribune.com","pv_count":"1","session_count":"1"},"bufferapp.com":{"type":"domain","domain":"bufferapp.com","pv_count":"3","session_count":"1"},"www.revser.com:2095":{"type":"domain","domain":"www.revser.com:2095","pv_count":"1","session_count":"1"},"flickr.com":{"type":"domain","domain":"flickr.com","pv_count":"3","session_count":"1"},"gabymenta.com.ar":{"type":"domain","domain":"gabymenta.com.ar","pv_count":"1","session_count":"1"},"theworkathomewife.com":{"type":"domain","domain":"theworkathomewife.com","pv_count":"1","session_count":"1"},"maoxian.com":{"type":"domain","domain":"maoxian.com","pv_count":"2","session_count":"1"},"www.google.si":{"type":"domain","domain":"www.google.si","pv_count":"2","session_count":"1"},"yfrog.com":{"type":"domain","domain":"yfrog.com","pv_count":"1","session_count":"1"},"google.co.in":{"type":"domain","domain":"google.co.in","pv_count":"1","session_count":"1"},"blogengage.com":{"type":"domain","domain":"blogengage.com","pv_count":"1","session_count":"1"},"www.google.it":{"type":"domain","domain":"www.google.it","pv_count":"1","session_count":"1"},"jolicloud.com":{"type":"domain","domain":"jolicloud.com","pv_count":"1","session_count":"1"},"tinyurl.com":{"type":"domain","domain":"tinyurl.com","pv_count":"1","session_count":"1"},"verizon.com":{"type":"domain","domain":"verizon.com","pv_count":"1","session_count":"1"},"abrahamvegh.com":{"type":"domain","domain":"abrahamvegh.com","pv_count":"1","session_count":"1"},"weddingcreativo.com:2095":{"type":"domain","domain":"weddingcreativo.com:2095","pv_count":"1","session_count":"1"},"pluggio.com":{"type":"domain","domain":"pluggio.com","pv_count":"1","session_count":"1"},"venturemaven.com":{"type":"domain","domain":"venturemaven.com","pv_count":"1","session_count":"1"},"popacular.com":{"type":"domain","domain":"popacular.com","pv_count":"1","session_count":"1"},"fastladder.com":{"type":"domain","domain":"fastladder.com","pv_count":"1","session_count":"1"},"bitlynews.com":{"type":"domain","domain":"bitlynews.com","pv_count":"1","session_count":"1"},"zite.com":{"type":"domain","domain":"zite.com","pv_count":"1","session_count":"1"},"timpeter.com":{"type":"domain","domain":"timpeter.com","pv_count":"1","session_count":"1"},"mail2world.com":{"type":"domain","domain":"mail2world.com","pv_count":"1","session_count":"1"},"www.marketingfacts.nl":{"type":"domain","domain":"www.marketingfacts.nl","pv_count":"1","session_count":"1"},"aol.com":{"type":"domain","domain":"aol.com","pv_count":"1","session_count":"1"},"brizzly.com":{"type":"domain","domain":"brizzly.com","pv_count":"1","session_count":"1"},"artoftravelblogging.com":{"type":"domain","domain":"artoftravelblogging.com","pv_count":"1","session_count":"1"},"terra.com.br":{"type":"domain","domain":"terra.com.br","pv_count":"1","session_count":"1"},"mail.comcast.net":{"type":"domain","domain":"mail.comcast.net","pv_count":"1","session_count":"1"},"www.grabadosfussion.com:2095":{"type":"domain","domain":"www.grabadosfussion.com:2095","pv_count":"1","session_count":"1"},"vocecommunications.com":{"type":"domain","domain":"vocecommunications.com","pv_count":"1","session_count":"1"},"www.google.fr":{"type":"domain","domain":"www.google.fr","pv_count":"7","session_count":"1"},"tumblr.kemeny.cl":{"type":"domain","domain":"tumblr.kemeny.cl","pv_count":"3","session_count":"1"},"posterous.com":{"type":"domain","domain":"posterous.com","pv_count":"1","session_count":"1"},"email10.secureserver.net":{"type":"domain","domain":"email10.secureserver.net","pv_count":"1","session_count":"1"},"weibo.com":{"type":"domain","domain":"weibo.com","pv_count":"1","session_count":"1"},"restream.me":{"type":"domain","domain":"restream.me","pv_count":"3","session_count":"1"},"foolabs.com":{"type":"domain","domain":"foolabs.com","pv_count":"1","session_count":"1"},"www.google.es":{"type":"domain","domain":"www.google.es","pv_count":"2","session_count":"1"},"google.com.my":{"type":"domain","domain":"google.com.my","pv_count":"1","session_count":"1"},"hahlo.com":{"type":"domain","domain":"hahlo.com","pv_count":"1","session_count":"1"},"livego.com":{"type":"domain","domain":"livego.com","pv_count":"1","session_count":"1"},"hostcentric.com":{"type":"domain","domain":"hostcentric.com","pv_count":"1","session_count":"1"},"icerocket.com":{"type":"domain","domain":"icerocket.com","pv_count":"1","session_count":"1"},"laterstars.com":{"type":"domain","domain":"laterstars.com","pv_count":"1","session_count":"1"},"mypagehub.com":{"type":"domain","domain":"mypagehub.com","pv_count":"2","session_count":"1"},"blog.darkuncle.net":{"type":"domain","domain":"blog.darkuncle.net","pv_count":"1","session_count":"1"},"clybs.com":{"type":"domain","domain":"clybs.com","pv_count":"1","session_count":"1"},"sscwa.com":{"type":"domain","domain":"sscwa.com","pv_count":"1","session_count":"1"},"datasift.net":{"type":"domain","domain":"datasift.net","pv_count":"1","session_count":"1"},"felixsalmon.com":{"type":"domain","domain":"felixsalmon.com","pv_count":"1","session_count":"1"},"tweetlist.com":{"type":"domain","domain":"tweetlist.com","pv_count":"1","session_count":"1"},"www.samsclass.info":{"type":"domain","domain":"www.samsclass.info","pv_count":"1","session_count":"1"},"ssctoday.com":{"type":"domain","domain":"ssctoday.com","pv_count":"1","session_count":"1"},"www.steadynews.de":{"type":"domain","domain":"www.steadynews.de","pv_count":"1","session_count":"1"},"toodledo.com":{"type":"domain","domain":"toodledo.com","pv_count":"1","session_count":"1"},"www.google.ps":{"type":"domain","domain":"www.google.ps","pv_count":"2","session_count":"1"},"seesmic.com":{"type":"domain","domain":"seesmic.com","pv_count":"1","session_count":"1"},"twimbow.com":{"type":"domain","domain":"twimbow.com","pv_count":"1","session_count":"1"},"beatbabel.com":{"type":"domain","domain":"beatbabel.com","pv_count":"1","session_count":"1"},"flyingsolo.com.au":{"type":"domain","domain":"flyingsolo.com.au","pv_count":"1","session_count":"1"},"communitybandwidth.net":{"type":"domain","domain":"communitybandwidth.net","pv_count":"1","session_count":"1"}}